…
PD_only %>% group_by(CLNSIG) %>% tally()

# A tibble: 6 x 2
  CLNSIG                                           n
  <chr>                                        <int>
1 Conflicting_interpretations_of_pathogenicity    49
2 Likely_pathogenic                                2
3 Pathogenic                                      45
4 Pathogenic/Likely_pathogenic                     4
5 risk_factor                                      8
6 Uncertain_significance                         128

PD_only %>% group_by(Gene.refGene) %>% tally() %>% arrange(desc(n))
# A tibble: 30 x 2
   Gene.refGene     n
   <chr>        <int>
 1 LRRK2           75
 2 ATP13A2         26
 3 PINK1           22
 4 PRKN            16
 5 SYNJ1           12
 6 PLA2G6           9
 7 SLC6A3           8
 8 SNCAIP           8
 9 FBXO7            7
10 GBA              7
# … with 20 more rows
…
